{
  "info" : {
    "version" : 1,
    "author" : "xcode"
  },
  "colors" : [
    {
      "idiom" : "universal",
      "color" : {
        "components" : {
          "alpha" : "1.000",
          "blue" : "0.969",
          "green" : "0.969",
          "red" : "0.969"
        },
        "color-space" : "srgb"
      }
    }
  ]
}